<number of messages>;<number of nodes>
265;16
2737;45
1195;36
214;13
1502;37
2119;46
303;16
523;22
174;11
1499;37
679;25
584;23
2337;47
289;17
834;27
2056;42
2028;46
684;25
1984;40
203;13
683;27
1218;35
1920;44
943;30
1314;32
267;15
542;21
591;25
1127;33
301;17
1783;43
1965;43
1348;32
1676;39
1654;36
926;28
1285;31
1853;40
2062;46
2066;48
1083;36
1121;32
1124;34
1365;37
2361;44
1935;44
1228;30
1175;33
656;26
211;14
858;26
2138;47
1219;35
817;28
177;11
305;16
886;27
2420;45
602;25
430;21
2708;48
482;22
192;13
1616;42
2673;48
1377;36
153;12
243;13
2090;43
604;22
1759;42
195;13
2177;41
632;22
205;13
1333;35
210;15
504;21
1186;33
168;11
287;17
2586;49
1113;34
870;29
891;27
551;23
1796;44
1045;34
1338;36
143;11
994;30
497;22
1321;35
2173;46
309;15
2231;42
703;27
1379;35
547;22
124;10
339;18
1046;33
595;24
2252;48
172;11
789;28
3118;48
2166;44
1730;41
1036;33
805;28
465;20
293;16
380;17
2359;49
500;22
947;31
1542;36
1952;48
393;18
953;29
361;19
2032;47
988;28
236;13
2510;49
431;20
2373;45
1896;41
926;29
166;11
310;17
2541;47
878;29
1644;38
281;16
304;17
2010;42
1527;33
1150;31
126;10
409;19
1284;34
2282;45
744;24
775;29
160;11
388;19
495;21
1234;35
1028;30
141;11
582;24
2350;48
877;31
178;12
770;28
183;13
527;21
144;11
529;23
425;18
913;30
1303;36
1262;36
355;17
985;30
1969;44
1952;39
623;24
252;14
986;32
226;14
1316;36
736;25
1327;33
1167;37
1051;31
1354;35
451;21
1335;37
2145;47
398;18
578;24
754;26
1315;37
1234;37
2052;39
762;26
910;31
804;29
1936;45
246;13
1970;43
1230;36
1567;36
165;12
1639;43
162;12
1026;32
